<?xml version="1.0" encoding="utf-8"?>
<!-- Generator: Adobe Illustrator 24.1.2, SVG Export Plug-In . SVG Version: 6.00 Build 0)  -->
<svg version="1.1" id="Group_1937" xmlns="http://www.w3.org/2000/svg" xmlns:xlink="http://www.w3.org/1999/xlink" x="0px" y="0px"
	 viewBox="0 0 30 30" style="enable-background:new 0 0 30 30;" xml:space="preserve">
<style type="text/css">
	.st0{fill:#FFFFFF;}
</style>
<g>
	<circle id="Ellipse_335" cx="15" cy="15" r="15"/>
	<path class="st0" d="M16.7,22.7l-2-2.1c-0.3-0.3-0.8-0.2-1,0.1c-0.2,0.3-0.2,0.6,0,0.9l1,1c-0.7,0-1.3-0.2-2-0.4
		c-1.3-0.4-2.5-1.1-3.4-2.1c-1.4-1.6-2.1-3.7-1.9-5.8c0.2-1.9,1.1-3.7,2.5-5c0.1-0.1,0.2-0.3,0.3-0.5c0-0.2-0.1-0.4-0.2-0.5
		C9.7,8.1,9.6,8,9.4,8C9.2,8,9,8,8.8,8.2c-1.7,1.6-2.7,3.7-2.9,5.9c-0.3,2.5,0.5,5.1,2.3,7c1.1,1.2,2.5,2.1,4.1,2.6
		c0.7,0.2,1.3,0.3,2,0.4l-0.7,0.6c-0.3,0.3-0.3,0.7-0.1,1c0.1,0.1,0.3,0.2,0.5,0.2c0.2,0,0.3-0.1,0.5-0.2l2.2-1.8
		c0.4-0.2,0.5-0.6,0.4-1C17,22.9,16.9,22.8,16.7,22.7L16.7,22.7z"/>
	<path class="st0" d="M21.9,8.9c-1.1-1.2-2.5-2.1-4.1-2.6c-0.7-0.2-1.3-0.3-2-0.4l0.7-0.6l0,0c0.3-0.3,0.3-0.8,0.1-1.1
		s-0.8-0.3-1.1-0.1l0,0L13.3,6c-0.3,0.1-0.4,0.4-0.4,0.6c0,0.3,0.1,0.5,0.4,0.7l2,2.1c0.1,0.1,0.3,0.2,0.5,0.2
		c0.2,0,0.4-0.1,0.5-0.2c0.1-0.1,0.2-0.3,0.2-0.5c0-0.2-0.1-0.4-0.2-0.5l-1-1c0.7,0,1.3,0.2,2,0.3c1.3,0.4,2.5,1.2,3.4,2.2
		c1.4,1.6,2.1,3.7,1.9,5.9c-0.2,1.9-1.1,3.7-2.5,5c-0.3,0.3-0.3,0.7-0.1,1c0.1,0.1,0.3,0.2,0.5,0.2l0,0c0.2,0,0.4-0.1,0.5-0.2
		c1.7-1.6,2.7-3.7,2.9-5.9C24.4,13.4,23.5,10.8,21.9,8.9z"/>
</g>
</svg>
